%
M48
M72
T01C0.01378
T02C0.03200
T03C0.04000
T04C0.04724
T05C0.05118
T06C0.11024
%
T01
X60000Y81500
X122000Y121000
X102000Y126000
X187000Y126000
X207000Y121000
X272000Y126000
X292000Y121000
X313500Y109789
X357000Y126000
X377000Y121000
X410500Y112500
X405300Y109900
X400100Y107200
X415800Y118000
X442100Y126000
X462000Y121000
X527000Y126000
X547000Y121000
X588000Y157000
X598000Y157000
X608500Y157000
X494500Y174587
X410500Y90100
X405200Y87600
X400100Y84900
X416000Y80349
X482000Y71000
X494600Y80500
X313500Y79013
X60000Y174500
T02
X489500Y53500
X489500Y43500
T03
X602700Y100300
X602700Y110300
X602700Y120300
X602700Y130300
X602700Y140300
X602700Y150300
X45000Y131500
X45000Y121500
X45000Y111500
X45000Y101500
X45000Y91500
X45000Y81500
T04
X82000Y141000
X92000Y141000
X102000Y141000
X112000Y141000
X122000Y141000
X132000Y141000
X142000Y141000
X167000Y141000
X177000Y141000
X187000Y141000
X197000Y141000
X207000Y141000
X217000Y141000
X227000Y141000
X252000Y141000
X262000Y141000
X272000Y141000
X282000Y141000
X292000Y141000
X302000Y141000
X312000Y141000
X337000Y141000
X347000Y141000
X357000Y141000
X367000Y141000
X377000Y141000
X387000Y141000
X397000Y141000
X422000Y141000
X432000Y141000
X442000Y141000
X452000Y141000
X462000Y141000
X472000Y141000
X482000Y141000
X507000Y141000
X517000Y141000
X527000Y141000
X537000Y141000
X547000Y141000
X557000Y141000
X567000Y141000
X562000Y161000
X552000Y161000
X542000Y161000
X532000Y161000
X522000Y161000
X512000Y161000
X502000Y161000
X487000Y161000
X477000Y161000
X467000Y161000
X457000Y161000
X447000Y161000
X437000Y161000
X427000Y161000
X417000Y161000
X402000Y161000
X392000Y161000
X382000Y161000
X372000Y161000
X362000Y161000
X352000Y161000
X342000Y161000
X332000Y161000
X317000Y161000
X307000Y161000
X297000Y161000
X287000Y161000
X277000Y161000
X267000Y161000
X257000Y161000
X247000Y161000
X232000Y161000
X222000Y161000
X212000Y161000
X202000Y161000
X192000Y161000
X182000Y161000
X172000Y161000
X162000Y161000
X147000Y161000
X137000Y161000
X127000Y161000
X117000Y161000
X107000Y161000
X97000Y161000
X87000Y161000
X77000Y161000
X572000Y161000
T05
X567083Y190902
X547083Y190902
X527083Y190902
X507083Y190902
X482083Y190902
X462083Y190902
X442083Y190902
X422083Y190902
X397083Y190902
X377083Y190902
X357083Y190902
X337083Y190902
X312083Y190902
X292083Y190902
X272083Y190902
X252083Y190902
X227083Y190902
X207083Y190902
X187083Y190902
X167083Y190902
X142083Y190902
X122083Y190902
X102083Y190902
X82083Y190902
X601902Y65917
X601902Y45917
T06
X42000Y16000
X42000Y196000
X607000Y196000
X607000Y16000
M30
